Municipios,año,Arracacha,Cebolla Bulbo a,Cebolla Bulbo b,Papa b,Papachina,Remolacha a,Remolacha b,Yuca,Zanahoria a,Zanahoria b
Cali,2018,0,0,0,0,0,0,0,38,4,3
Alcalá,2018,0,0,0,0,0,0,0,0,0,0
Andalucia,2018,0,0,0,0,0,0,0,0,0,0
Ansermanuevo,2018,0,0,0,0,0,0,0,0,0,0
Argelia,2018,0,0,0,0,0,0,0,0,0,0
Bolivar,2018,90,0,0,0,0,0,0,55,0,0
Buenaventura,2018,0,0,0,0,300,0,0,60,0,0
Buga,2018,5,0,0,18,0,0,0,3,0,0
Bugalagrande,2018,0,0,0,0,0,0,0,0,0,0
Caicedonia,2018,0,0,0,0,0,0,0,34,0,0
Calima Darién,2018,0,0,0,0,0,0,0,15,0,0
Candelaria,2018,0,0,0,0,0,0,0,0,0,0
Cartago,2018,0,0,0,0,0,0,0,0,0,0
Dagua,2018,10,0,0,0,0,0,0,73,0,0
El Aguila,2018,0,0,0,0,0,0,0,3,0,0
El Cairo,2018,0,0,0,0,0,0,0,0,0,0
El Cerrito,2018,0,22,22,0,0,0,0,0,0,0
El Dovio,2018,90,0,0,0,0,0,0,20,0,0
Florida,2018,2,0,0,1,0,0,0,25,0,0
Ginebra,2018,0,0,0,0,0,0,0,0,0,0
Guacarí,2018,8,0,0,0,0,0,0,3.6,0,0
Jamundí,2018,0,0,0,0,0,0,0,3,0,0
La Cumbre,2018,0,0,0,0,0,0,0,4.9,0,0
La Unión,2018,6,0,0,0,0,0,0,9,0,0
La Victoria,2018,0,0,0,0,0,0,0,7,0,0
Obando,2018,0,0,0,0,0,0,0,10,0,0
Palmira,2018,8,22,22,0,0,0,0,17,0,0
Pradera,2018,0,0,0,0,0,0,0,0,0,0
Restrepo,2018,0,0,0,0,0,0,0,12,0,0
Riofrío,2018,0,0,0,0,0,0,0,7,0,0
Roldanillo,2018,25,0,0,0,0,0,0,12,0,0
San Pedro,2018,0,0,0,0,0,0,0,32,0,0
Sevilla,2018,0,0,0,15,0,0,0,12,0,0
Toro,2018,0,0,0,0,0,0,0,0,0,0
Trujillo,2018,0,0,0,0,0,0,0,12,0,0
Tuluá,2018,9,5,5,200,0,0,0,9,54,55
Ulloa,2018,0,0,0,0,0,0,0,7,0,0
Versalles,2018,23.3,0,0,0,0,0,0,10,0,0
Vijes,2018,6,4.2,4.2,0,0,0,0,26,0,0
Yotoco,2018,1.5,0,0,0,0,0,0,8,0,0
Yumbo,2018,6,2,2,0,0,0,0,8,0,0
Zarzal,2018,0,0,0,0,0,0,0,2,0,0
Municipios,año,Arracacha,Cebolla Bulbo a,Cebolla Bulbo b,Papa b,Papachina,Remolacha a,Remolacha b,Yuca,Zanahoria a,Zanahoria b
Cali,2017,0,0,0,0,0,0,0,40,3,3
Alcalá,2017,0,0,0,0,0,0,0,17,0,0
Andalucia,2017,0,0,0,0,0,0,0,0,0,0
Ansermanuevo,2017,0,0,0,0,0,0,0,0,0,0
Argelia,2017,0,0,0,0,0,0,0,0,0,0
Bolivar,2017,100,0,0,0,0,0,0,63,0,0
Buenaventura,2017,0,0,0,0,250,0,0,50,0,0
Buga,2017,8,0,0,3,0,0,0,6,4,3
Bugalagrande,2017,0,0,0,0,0,0,0,0,0,0
Caicedonia,2017,0,0,0,0,0,0,0,19,0,0
Calima Darién,2017,0,0,0,0,0,0,0,25,0,0
Candelaria,2017,0,0,0,0,0,0,0,0,0,0
Cartago,2017,0,0,0,0,0,0,0,0,0,0
Dagua,2017,6,0,0,0,0,0,0,60,0,0
El Aguila,2017,0,0,0,0,0,0,0,3,0,0
El Cairo,2017,0,0,0,0,0,0,0,3,0,0
El Cerrito,2017,0,8,8,0,0,0,0,0,0,0
El Dovio,2017,108,0,0,0,0,0,0,25,0,0
Florida,2017,2,0,0,2,0,0,0,25,0,0
Ginebra,2017,0,0,0,0,0,0,0,0,0,0
Guacarí,2017,8,0,0,0,0,0,0,35,0,0
Jamundí,2017,0,0,0,0,0,0,0,3,0,0
La Cumbre,2017,0,0,0,0,0,0,0,5,0,0
La Unión,2017,5,0,0,0,0,0,0,7,0,0
La Victoria,2017,0,0,0,0,0,0,0,1,0,0
Obando,2017,0,0,0,0,0,0,0,8,0,0
Palmira,2017,3,17.8,17.8,0,0,0,0,9,0,0
Pradera,2017,0,0,0,0,0,0,0,0,0,0
Restrepo,2017,0,0,0,0,0,0,0,15,0,0
Riofrío,2017,0,0,0,0,0,0,0,5,0,0
Roldanillo,2017,25,0,0,0,0,0,0,15,0,0
San Pedro,2017,0,0,0,0,0,0,0,32,0,0
Sevilla,2017,0,0,0,4,0,0,0,15,0,0
Toro,2017,0,0,0,0,0,0,0,4,0,0
Trujillo,2017,5,0,0,0,0,0,0,20,0,0
Tuluá,2017,7,5,5,200,0,0,0,8,54,55
Ulloa,2017,0,0,0,0,0,0,0,7.7,0,0
Versalles,2017,10,0,0,0,0,0,0,12,0,0
Vijes,2017,6,3.6,3.6,0,0,0,0,20,0,0
Yotoco,2017,2,0,0,0,0,0,0,15,0,0
Yumbo,2017,2,3,3,0,0,0,0,8,1.01,0
Zarzal,2017,0,0,0,0,0,0,0,5.5,0,0
Municipios,año,Arracacha,Cebolla Bulbo a,Cebolla Bulbo b,Papa b,Papachina,Remolacha a,Remolacha b,Yuca,Zanahoria a,Zanahoria b
Cali,2016,0,0,0,0,0,0,0,3.5,8,56
Alcalá,2016,0,0,0,0,0,0,0,0,0,32
Andalucia,2016,0,0,0,0,0,0,0,0,0,0
Ansermanuevo,2016,0,0,0,0,0,0,0,0,0,0
Argelia,2016,0,0,0,0,0,0,0,0,0,0
Bolivar,2016,100,0,0,0,0,0,0,0,0,50
Buenaventura,2016,0,0,0,0,300,0,0,0,0,39
Buga,2016,5,0,0,2,0,0,0,0,0,5
Bugalagrande,2016,0,0,0,0,0,0,0,0,0,0
Caicedonia,2016,0,0,0,0,0,0,0,0,0,22
Calima Darién,2016,0,0,0,0,0,0,0,0,0,30
Candelaria,2016,0,0,0,0,0,0,0,0,0,0
Cartago,2016,0,0,0,0,0,0,0,0,0,0
Dagua,2016,29,0,0,0,35,0,0,0,0,145
El Aguila,2016,0,0,0,0,0,0,0,0,0,9
El Cairo,2016,0,0,0,0,0,0,0,0,0,3
El Cerrito,2016,0,22,22,0,0,0,0,0,0,0
El Dovio,2016,80,0,0,0,0,0,0,0,0,20
Florida,2016,0,0,0,1,0,0,0,0,0,23.8
Ginebra,2016,0,0,0,0,0,0,0,0,0,0
Guacarí,2016,9,0,0,0,0,0,0,0,0,35
Jamundí,2016,0,0,0,0,0,0,0,0,0,4
La Cumbre,2016,0,0,0,0,0,0,0,0,0,5
La Unión,2016,5,0,0,0,0,0,0,0,0,7
La Victoria,2016,0,0,0,0,0,0,0,0,0,4
Obando,2016,0,0,0,0,0,0,0,0,0,0
Palmira,2016,1.105,1.632,2.5,0,0,0,0,0,0,28.389999999999997
Pradera,2016,0,0,0,0,0,0,0,0,0,0
Restrepo,2016,0,0,0,0,0,0,0,0,0,20
Riofrío,2016,0,0,0,0,0,0,0,0,0,10
Roldanillo,2016,25,0,0,0,0,0,0,0,0,15
San Pedro,2016,0,0,0,0,0,0,0,0,0,30
Sevilla,2016,0,0,0,0,0,0,0,0,0,20
Toro,2016,0,0,0,0,0,0,0,0,0,5
Trujillo,2016,5,0,0,0,0,0,0,0,0,20
Tuluá,2016,7,0,0,260,0,0,0,54,65,8
Ulloa,2016,0,0,0,0,0,0,0,0,0,1
Versalles,2016,12,0,0,0,0,0,0,0,0,5
Vijes,2016,8,12,12,0,0,0,0,0,0,30
Yotoco,2016,2,0,0,0,0,0,0,0,0,25
Yumbo,2016,0,2,1,0,0,0,0,0,0,0
Zarzal,2016,0,0,0,0,0,0,0,0,0,3
Municipios,año,Arracacha,Cebolla Bulbo a,Cebolla Bulbo b,Papa b,Papachina,Remolacha a,Remolacha b,Yuca,Zanahoria a,Zanahoria b
Cali,2015,0,0,0,0,0,0,0,4,5,24
Alcalá,2015,0,0,0,0,0,0,0,0,0,20
Andalucia,2015,0,0,0,0,0,0,0,0,0,0
Ansermanuevo,2015,0,0,0,0,0,0,0,0,0,0
Argelia,2015,0,0,0,0,0,0,0,0,0,0
Bolivar,2015,90,0,0,0,0,0,0,0,0,60
Buenaventura,2015,0,0,0,0,320,0,0,0,0,39
Buga,2015,1,0,0,0,0,0,0,0,0,3
Bugalagrande,2015,0,0,0,0,0,0,0,0,0,0
Caicedonia,2015,0,0,0,0,0,0,0,0,0,18
Calima Darién,2015,0,0,0,0,0,0,0,0,0,24
Candelaria,2015,0,0,0,0,0,0,0,0,0,0
Cartago,2015,0,0,0,0,0,0,0,0,0,1
Dagua,2015,25,0,0,0,55,0,0,0,0,130
El Aguila,2015,0,0,0,0,0,0,0,0,0,11
El Cairo,2015,0,0,0,0,0,0,0,0,0,6.3
El Cerrito,2015,0,22,22,0,0,0,0,0,0,0
El Dovio,2015,90,0,0,0,0,0,0,0,0,2
Florida,2015,0,0,0,0,0,0,0,0,0,18
Ginebra,2015,0,0,0,0,0,0,0,0,0,0
Guacarí,2015,8,0,0,0,0,0,0,0,0,31
Jamundí,2015,0,0,0,0,0,0,0,0,0,3
La Cumbre,2015,0,0,0,0,0,0,0,0,0,4.5
La Unión,2015,7,0,0,0,0,0,0,0,0,8
La Victoria,2015,0,0,0,0,0,0,0,0,0,3
Obando,2015,0,0,0,0,0,0,0,0,0,0
Palmira,2015,0,1.6,1.6,0,0,0,0,0,0,0
Pradera,2015,0,3,4,0,0,0,0,0,0,0
Restrepo,2015,0,2,2,0,0,0,0,0,0,20
Riofrío,2015,0,0,0,0,0,0,0,0,0,7
Roldanillo,2015,43,0,0,0,0,0,0,0,0,15
San Pedro,2015,0,0,0,0,0,0,0,0,0,30
Sevilla,2015,0,0,0,0,0,0,0,0,0,3.5
Toro,2015,0,0,0,0,0,0,0,0,0,5
Trujillo,2015,5,0,0,0,0,0,0,0,0,15
Tuluá,2015,8,0,0,250,0,0,0,66,59,9
Ulloa,2015,0,0,0,0,0,0,0,0,0,0
Versalles,2015,15,0,0,0,0,0,0,0,0,11
Vijes,2015,8,17,17,0,0,0,0,0,0,30
Yotoco,2015,1,0,0,0,0,0,0,0,0,20
Yumbo,2015,4,4,2,0,0,0,0,0,0,7
Zarzal,2015,0,0,0,0,0,0,0,0,0,3
Municipios,año,Arracacha,Cebolla Bulbo a,Cebolla Bulbo b,Papa b,Papachina,Remolacha a,Remolacha b,Yuca,Zanahoria a,Zanahoria b
Cali,2014,,,,,,,,,,25
Alcalá,2014,,,,,,,,,,30
Andalucia,2014,,,,,,,,,,
Ansermanuevo,2014,,,,,,,,,,
Argelia,2014,6,,,,,,,,,
Bolivar,2014,96,,,,,,,,,50
Buenaventura,2014,,,,,320,,,,,35
Buga,2014,1,1,1,2,,,,,,3
Bugalagrande,2014,,,,,,,,,,
Caicedonia,2014,,,,,,,,,,20
Calima Darién,2014,,,,,,,,,,18
Candelaria,2014,,,,,,,,,,
Cartago,2014,,,,,,,,,,
Dagua,2014,25,,,,69,,,,,125
El Aguila,2014,,,,,,,,,,11
El Cairo,2014,,,,,,,,,,
El Cerrito,2014,,18,18,,,,,,,
El Dovio,2014,180,,,,,,,,,1
Florida,2014,,,,1,,,,,,16
Ginebra,2014,,,,,,,,,,
Guacarí,2014,7,,,,,,,,,30
Jamundí,2014,,,,,,,,,,6
La Cumbre,2014,,,,,,,,,,3
La Unión,2014,8.2,,,,,,,,,9
La Victoria,2014,,,,,,,,,,3
Obando,2014,,,,,,,,,,
Palmira,2014,,2.5,2.5,,,,,,,5
Pradera,2014,,3,6,,,,,,,
Restrepo,2014,,1.5,,,,,,,,25
Riofrío,2014,,,,,,,,,,10
Roldanillo,2014,30,,,,,,,,,15
San Pedro,2014,,,,,,,,,,20
Sevilla,2014,,,,,,,,,,3
Toro,2014,,,,,,,,,,3.8
Trujillo,2014,5,,,,,,,,,17.5
Tuluá,2014,10,,,260,,,,66,65,15
Ulloa,2014,,,,,,,,,,2
Versalles,2014,35,,,,,,,,,8
Vijes,2014,9,16,17,,,,,,,27
Yotoco,2014,1.7,,,,,,,,,11
Yumbo,2014,3,6,2,,,,,,,7
Zarzal,2014,,,,,,,,,,13.5
Municipios,año,Arracacha,Cebolla Bulbo a,Cebolla Bulbo b,Papa b,Papachina,Remolacha a,Remolacha b,Yuca,Zanahoria a,Zanahoria b
Cali,2013,0,0,0,0,0,0,0,36,5,5
Alcalá,2013,0,0,0,0,0,0,0,5,0,0
Andalucia,2013,0,0,0,0,0,0,0,0,0,0
Ansermanuevo,2013,0,0,0,0,0,0,0,0,0,0
Argelia,2013,0,0,0,0,0,0,0,0,0,0
Bolivar,2013,98,0,0,0,0,0,0,60,0,0
Buenaventura,2013,0,0,0,0,318,0,0,35,0,0
Buga,2013,0,1,0.5,0,0,0,0,3,0,0
Bugalagrande,2013,0,0,0,0,0,0,0,0,0,0
Caicedonia,2013,0,0,0,0,0,0,0,22,0,0
Calima Darién,2013,0,0,0,0,0,0,0,16,0,0
Candelaria,2013,0,0,0,0,0,0,0,0,0,0
Cartago,2013,0,0,0,0,0,0,0,0,0,0
Dagua,2013,22,0,0,0,0,0,0,130,0,0
El Aguila,2013,4.5,0,0,0,0,0,0,9,3,0.5
El Cairo,2013,0,0,0,0,0,0,0,6,0,0
El Cerrito,2013,0,19.5,19.5,0,0,0,0,0,0,0
El Dovio,2013,90,0,0,0,0,0,0,1,0,0
Florida,2013,0,0,0,1,0,0,0,18,0,0
Ginebra,2013,0,0,0,0,0,0,0,0,0,0
Guacarí,2013,5,0,0,0,0,0,0,20,0,0
Jamundí,2013,0,0,0,0,0,0,0,4,0,0
La Cumbre,2013,0,0,0,0,0,0,0,7,0,0
La Unión,2013,8,0,0,0,0,0,0,9,0,0
La Victoria,2013,0,0,0,0,0,0,0,2,0,0
Obando,2013,0,0,0,0,0,0,0,0,0,0
Palmira,2013,0,18,18,0,0,0,0,5,0,0
Pradera,2013,0,3,5,0,0,0,0,0,0,0
Restrepo,2013,0,2,0,0,0,0,0,22,0,0
Riofrío,2013,0,0,0,0,0,0,0,20.9,0,0
Roldanillo,2013,57.2,0,0,0,0,0,0,23.2,0,0
San Pedro,2013,0,0,0,0,0,0,0,25,0,0
Sevilla,2013,0,0,0,0,0,0,0,0,0,0
Toro,2013,3,0,0,0,0,0,0,4,0,0
Trujillo,2013,4.3,0,0,0,0,0,0,20.9,0,0
Tuluá,2013,13,0,0,48,0,0,0,20,70,70
Ulloa,2013,0,0,0,0,0,0,0,3,0,0
Versalles,2013,33,0,0,0,0,0,0,5,0,0
Vijes,2013,8,13,13,0,0,0,0,25,0,0
Yotoco,2013,2.5,0,0,0,0,0,0,11,0,0
Yumbo,2013,0,4,2,0,0,0,0,5,0,0
Zarzal,2013,3,0,0,0,0,0,0,7,0,0
Municipios,año,Arracacha,Cebolla Bulbo a,Cebolla Bulbo b,Papa b,Papachina,Remolacha a,Remolacha b,Yuca,Zanahoria a,Zanahoria b
Cali,2012,0,0,0,0,,0,0,7,5,15
Alcalá,2012,0,0,0,0,,0,0,0,0,75
Andalucia,2012,0,0,0,0,,0,0,0,0,0
Ansermanuevo,2012,0,0,0,0,,0,0,0,0,0
Argelia,2012,0,0,0,0,,0,0,0,0,0
Bolivar,2012,60,0,0,0,,0,0,0,0,60
Buenaventura,2012,0,0,0,0,320,0,0,0,0,35
Buga,2012,10,1,7,11,,0,0,1,1,8
Bugalagrande,2012,0,0,0,0,,0,0,0,0,0
Caicedonia,2012,0,0,0,0,,0,0,0,0,21
Calima Darién,2012,0,0,0,0,,0,0,0,0,19
Candelaria,2012,0,0,0,0,,0,0,0,0,0
Cartago,2012,0,0,0,0,,0,0,0,0,0
Dagua,2012,23,0,0,0,,0,0,0,0,132
El Aguila,2012,0,0,0,0,,0,0,0,0,0
El Cairo,2012,2.5,0,0,0,,0,0,0,0,5.5
El Cerrito,2012,0,10,15,0,,0,0,0,0,0
El Dovio,2012,70,0,0,0,,0,0,0,0,2
Florida,2012,0,0,0,0,,0,0,0,0,10.75
Ginebra,2012,0,0,0,2,,0,0,0,0,0
Guacarí,2012,6,0,0,0,,0,0,0,0,15
Jamundí,2012,0,0,0,0,,0,0,0,0,7
La Cumbre,2012,0,0,0,0,,0,0,0,0,8
La Unión,2012,7,0,0,0,,0,0,0,0,9
La Victoria,2012,0,0,0,0,,0,0,0,0,1.5
Obando,2012,0,0,0,0,,0,0,0,0,0
Palmira,2012,0,14,15,0,,0,0,0,0,5
Pradera,2012,0,3,5,0,,0,0,0,0,0
Restrepo,2012,0,0,3,0,,0,0,0,0,20
Riofrío,2012,10,0,0,0,,0,0,0,0,20
Roldanillo,2012,60.2,0,0,0,,0,0,0,0,24.5
San Pedro,2012,0,0,12,0,,0,0,0,0,20
Sevilla,2012,0,0,0,0,,0,0,0,0,0
Toro,2012,3,0,0,0,,0,0,0,0,4
Trujillo,2012,3,0,0,0,,0,0,0,0,7
Tuluá,2012,13,0,0,308,,0,0,70,70,20
Ulloa,2012,0,0,0,0,,0,0,0,0,3
Versalles,2012,32,0,0,0,,0,0,0,0,4
Vijes,2012,12,12,12,0,,0,0,0,0,30
Yotoco,2012,0,0,0,0,,0,0,0,0,22
Yumbo,2012,2,4,3,0,,0,0,0,0,5
Zarzal,2012,0,0,0,0,,0,0,0,0,12.6
Municipios,año,Arracacha,Cebolla Bulbo a,Cebolla Bulbo b,Papa b,Papachina,Remolacha a,Remolacha b,Yuca,Zanahoria a,Zanahoria b
Cali,2011,0,0,0,0,0,0,0,7,7,10
Alcalá,2011,0,0,0,0,0,0,0,0,0,122
Andalucia,2011,0,0,0,0,0,0,0,0,0,0
Ansermanuevo,2011,0,0,0,0,0,0,0,0,0,0
Argelia,2011,0,0.3,0,0,0,0,0,0.3,0,0
Bolivar,2011,80,0,0,0,0,0,0,0,0,68
Buenaventura,2011,0,0,0,0,320,0,0,0,0,30
Buga,2011,10,1,7,11,0,0,0,1,1,8
Bugalagrande,2011,0,0,0,0,0,0,0,0,0,0
Caicedonia,2011,0,0,0,0,0,0,0,0,0,0
Calima Darién,2011,0,0,0,0,0,0,0,0,0,8
Candelaria,2011,0,0,0,0,0,0,0,0,0,0
Cartago,2011,0,0,0,0,0,0,0,0,0,0
Dagua,2011,23,0,0,0,72,0,0,0,0,132
El Aguila,2011,1,0,0,0,0,0,0,0,0,0
El Cairo,2011,2.5,0,0,0,0,0,0,0,0,5.5
El Cerrito,2011,0,10,20,0,0,0,0,0,0,0
El Dovio,2011,70,0,0.2,0,0,0,0,0,0,2.5
Florida,2011,0,0,0,0,0,0,0,0,0,10.75
Ginebra,2011,0,0,0,1,0,0,0,0,0,0
Guacarí,2011,10,0,0,0,0,0,0,0,14,35
Jamundí,2011,0,0,0,0,0,0,0,0,0,14
La Cumbre,2011,0,0,0,0,0,0,0,0,0,10
La Unión,2011,6.27,0,0,0,0,0,0,0,0,8
La Victoria,2011,0,0,0,0,0,0,0,0,0,1.5
Obando,2011,0,0,0,0,0,0,0,0,0,0
Palmira,2011,0,14.3,11,0,0,0,0,0,0,0
Pradera,2011,0,3,5,0,0,0,0,0,0,0
Restrepo,2011,0,0,0,0,0,0,0,0,0,19
Riofrío,2011,10,0,0,0,0,0,0,0,0,2.87
Roldanillo,2011,31.26,0,0,0,0,0,0,0,0,3.56
San Pedro,2011,0,0,0,0,0,0,0,0,0,18
Sevilla,2011,0,0,0,0,0,0,0,0,0,0
Toro,2011,3,0,0,0,0,0,0,0,0,4
Trujillo,2011,10,0,0,0,0,0,0,0,0,22
Tuluá,2011,13,0,0,308,0,0,0,70,0,20
Ulloa,2011,0,0,0,0,0,0,0,0,0,21.6
Versalles,2011,25,0,0,0,0,0,0,0,0,6
Vijes,2011,15,7.5,7.5,0,0,0,0,0,0,43
Yotoco,2011,0,0,0,0,0,0,0,0,0,59.9
Yumbo,2011,1.5,2,1,0,0,0,0,0,0,3
Zarzal,2011,0,0,0,0,0,0,0,0,0,8
Municipios,año,Arracacha,Cebolla Bulbo a,Cebolla Bulbo b,Papa b,Papachina,Remolacha a,Remolacha b,Yuca,Zanahoria a,Zanahoria b
Cali,2010,0,5.5,5.5,0,14,13,13,0,0,0
Alcalá,2010,0,0,0,0,380,0,0,0,0,0
Andalucia,2010,0,0,0,0,0,0,0,0,0,0
Ansermanuevo,2010,0,0,0,0,0,0,0,0,0,0
Argelia,2010,0,0.3,0,0,0,0.3,0,0,0,0
Bolivar,2010,73,0,0,0,40,0,0,0,0,0
Buenaventura,2010,0,0,0,0,24,0,0,0,0,100
Buga,2010,15,3,9,15,10,5,2,0,0,0
Bugalagrande,2010,0,0,0,0,0,0,0,0,0,0
Caicedonia,2010,0,0,0,0,26,0,0,0,0,0
Calima Darién,2010,0,0,0,0,12,0,0,0,0,0
Candelaria,2010,0,0,0,0,0,0,0,0,0,0
Cartago,2010,0,0,0,0,0,0,0,0,0,0
Dagua,2010,23,0,0,0,132,0,0,0,0,0
El Aguila,2010,1,0,0,0,0,0,0,0,0,0
El Cairo,2010,6.5,0,0,0,10.5,0,0,0,0,0
El Cerrito,2010,0,21,13,0,0,0,0,0,0,0
El Dovio,2010,80,0,0,0,1.5,0,0,0,0,0
Florida,2010,0,0,0,0,10.75,0,0,0,0,0
Ginebra,2010,0,3,3,1.3,0,0,0,0,0,0
Guacarí,2010,10,0,0,0,35,0,14,0,0,0
Jamundí,2010,0,0,0,0,15,0,0,0,0,0
La Cumbre,2010,0,0,0,0,10,0,0,0,0,0
La Unión,2010,0,0,0,0,0,0,0,0,0,0
La Victoria,2010,0,0,0,0,1,0,0,0,0,0
Obando,2010,0,0,0,0,0,0,0,0,0,0
Palmira,2010,0,14.3,11,0,0,0,0,0,0,0
Pradera,2010,0,3,5,0,0,0,0,0,0,0
Restrepo,2010,0,0,0,0,18,0,0,0,0,0
Riofrío,2010,0,0,0,0,18,0,0,0,0,0
Roldanillo,2010,35,0,0,0,6,0,0,0,0,0
San Pedro,2010,0,0,0,0,18,0,0,0,0,0
Sevilla,2010,0,0,0,0,0,0,0,0,0,0
Toro,2010,3,0,0,0,6,0,0,0,0,0
Trujillo,2010,10,0,0,0,22,0,0,0,0,0
Tuluá,2010,12,0,0,308,20,70,70,0,0,0
Ulloa,2010,0,0,0,0,6,0,0,0,0,0
Versalles,2010,32,0,0,0,10,0,0,0,0,0
Vijes,2010,10,0,0,0,42,8,5,4,3,0
Yotoco,2010,0,0,0,0,65,0,0,0,0,0
Yumbo,2010,1.5,2,1,0,3,0,0,0,0,0
Zarzal,2010,0,0,0,0,3.6,0,0,0,0,0
Municipios,año,Arracacha,Cebolla Bulbo a,Cebolla Bulbo b,Papa b,Papachina,Remolacha a,Remolacha b,Yuca,Zanahoria a,Zanahoria b
Cali,2009,0,,7,0,12,6,,0,0,0
Alcalá,2009,0,0,0,0,253,0,0,0,0,0
Andalucia,2009,0,0,0,0,,0,0,0,0,0
Ansermanuevo,2009,0,0.3,,0,,0.3,,,,0
Argelia,2009,0,0.3,0,0,0,0.3,0,0,0,0
Bolivar,2009,45,0,0,0,30,0,0,0,0,0
Buenaventura,2009,0,0,0,0,24,0,0,0,0,100
Buga,2009,45,10,15,30,20,11,5,,,
Bugalagrande,2009,0,0,0,0,0,0,0,0,0,0
Caicedonia,2009,0,0,0,0,12,0,0,0,0,0
Calima Darién,2009,0,0,0,0,9,0,0,0,0,0
Candelaria,2009,0,0,0,0,0,0,0,0,0,0
Cartago,2009,0,0,0,0,0,0,0,0,0,0
Dagua,2009,22,0,0,0,125,0,0,0,0,0
El Aguila,2009,1,0,0,0,,,0,,0,0
El Cairo,2009,9,0,0,0,9.5,0,0,0,0,0
El Cerrito,2009,0,21,18,0,0,0,0,0,0,0
El Dovio,2009,83,0,0,0,2.5,0,0,0,0,0
Florida,2009,0,0,0,0,,0,0,0,0,0
Ginebra,2009,,3,3,1.4,,0,0,0,0,0
Guacarí,2009,10,,,0,42,0,0,0,0,0
Jamundí,2009,0,0,0,0,7,0,0,0,0,0
La Cumbre,2009,,0,0,0,6,0,0,0,0,0
La Unión,2009,0,0,0,0,0,0,0,0,0,0
La Victoria,2009,0,0,0,0,1,0,0,0,0,0
Obando,2009,0,0,0,0,0,0,0,0,0,0
Palmira,2009,0,13,10,0,0,0,0,0,0,0
Pradera,2009,0,3,5,0,,0,0,0,0,0
Restrepo,2009,0,0,0,0,17,0,0,0,0,0
Riofrío,2009,10,0,0,0,2.87,0,0,0,0,0
Roldanillo,2009,30.08,0,,0,7.95,0,0,0,0,0
San Pedro,2009,0,0,0,0,12,0,0,0,0,0
Sevilla,2009,0,0,0,0,,0,0,0,0,0
Toro,2009,3,0,0,0,20,0,0,0,0,0
Trujillo,2009,10.5,0,0,0,28,0,0,0,0,0
Tuluá,2009,10,0,0,300,15,70,70,0,0,0
Ulloa,2009,0,0,0,0,40,0,0,0,0,0
Versalles,2009,30,0,0,0,5,0,0,0,0,0
Vijes,2009,7,0,0,0,41,10,8,5,0,0
Yotoco,2009,1,0,0,0,40,0,0,0,0,0
Yumbo,2009,1.5,6.9,7.5,0,3,0,0,0,4.5,0
Zarzal,2009,0,0,0,0,2,0,0,0,0,0
Municipios,año,Arracacha,Cebolla Bulbo a,Cebolla Bulbo b,Papa b,Papachina,Remolacha a,Remolacha b,Yuca,Zanahoria a,Zanahoria b
Cali,2008,0,10,2,0,,3,3,0,0,0
Alcalá,2008,0,0,0,0,425,0,0,0,0,0
Andalucia,2008,0,0,0,0,12,0,0,0,0,0
Ansermanuevo,2008,0,,,0,,,,,,0
Argelia,2008,0,0,0,0,0,0,0,0,0,0
Bolivar,2008,40,0,0,0,25,0,0,0,0,0
Buenaventura,2008,0,0,0,0,24,0,0,0,0,240
Buga,2008,,5,9,,,9,5,,,
Bugalagrande,2008,0,0,0,0,0,0,0,0,0,0
Caicedonia,2008,0,0,0,0,26,0,0,0,0,0
Calima Darién,2008,0,0,0,0,7,0,0,0,0,0
Candelaria,2008,0,0,0,0,0,0,0,0,0,0
Cartago,2008,0,0,0,0,0,0,0,0,0,0
Dagua,2008,24,0,0,0,128,0,0,0,0,0
El Aguila,2008,1,0,0,0,5,1,0,0.5,0,0
El Cairo,2008,0,0,0,0,5,0,0,0,0,0
El Cerrito,2008,0,,,0,0,0,0,0,0,0
El Dovio,2008,75,0,0,0,2,0,0,0,0,0
Florida,2008,0,0,0,0,15,0,0,0,0,0
Ginebra,2008,4,0,0,0,7,0,0,0,0,0
Guacarí,2008,7,,,0,29,0,0,0,0,0
Jamundí,2008,0,0,0,0,10,0,0,0,0,0
La Cumbre,2008,7,0,0,0,29,0,0,0,0,0
La Unión,2008,0,0,0,0,0,0,0,0,0,0
La Victoria,2008,0,0,0,0,1,0,0,0,0,0
Obando,2008,0,0,0,0,0,0,0,0,0,0
Palmira,2008,0,11,18.5,0,0,0,0,0,0,0
Pradera,2008,0,8,5,0,,0,0,0,0,0
Restrepo,2008,0,0,0,0,16,0,0,0,0,0
Riofrío,2008,0,0,0,0,2.5,0,0,0,0,0
Roldanillo,2008,130,0,9.6,0,10,0,0,0,0,0
San Pedro,2008,0,0,0,0,7,0,0,0,0,0
Sevilla,2008,0,0,0,0,,0,0,0,0,0
Toro,2008,0,0,0,0,0,0,0,0,0,0
Trujillo,2008,4.5,0,0,0,23,0,0,0,0,0
Tuluá,2008,9,0,0,230,8,70,60,0,0,0
Ulloa,2008,0,0,0,0,40,0,0,0,0,0
Versalles,2008,29,0,0,0,5,0,0,0,0,0
Vijes,2008,,0,0,0,,0,,0,0,0
Yotoco,2008,0,0,0,0,14,0,0,0,0,0
Yumbo,2008,1,1,,0,5,0,0,0,0,0
Zarzal,2008,0,0,0,0,2,0,0,0,0,0
Municipios,año,Arracacha,Cebolla Bulbo a,Cebolla Bulbo b,Papa b,Papachina,Remolacha a,Remolacha b,Yuca,Zanahoria a,Zanahoria b
Cali,2007,0,4,7.5,0,15,7,7,0,0,0
Alcalá,2007,0,0,0,0,70,0,0,0,0,0
Andalucia,2007,0,0,0,0,10,0,0,0,0,0
Ansermanuevo,2007,0,1,1,0,15,1,1,2,2,0
Argelia,2007,0,0,0,0,0,0,0,0,0,0
Bolivar,2007,50,0,0,0,40,0,0,0,0,0
Buenaventura,2007,0,0,0,0,20,0,0,0,0,250.5
Buga,2007,40,9,10,45,19,14,7,1,3,0
Bugalagrande,2007,0,0,0,0,0,0,0,0,0,0
Caicedonia,2007,0,0,0,0,0,0,0,0,0,0
Candelaria,2007,0,0,0,0,0,0,0,0,0,0
Cartago,2007,0,0,0,0,0,0,0,0,0,0
Dagua,2007,29,0,0,0,142,0,0,0,0,0
Darién,2007,0,0,0,0,6,0,0,0,0,0
El Aguila,2007,0,0,0,0,5,1,0,0.5,0,0
El Cairo,2007,0,0,0,0,3.6,0,0,0,0,0
El Cerrito,2007,0,30,17,0,0,0,0,0,0,0
El Dovio,2007,80,0,0,0,3,0,0,0,0,0
Florida,2007,0,0,0,0,12,0,0,0,0,0
Ginebra,2007,4,0,0,0,7,0,0,0,0,0
Guacarí,2007,5,17,12,0,35,0,0,0,0,0
Jamundí,2007,0,0,0,0,5,0,0,0,0,0
La Cumbre,2007,0,0,0,0,7,0,0,0,0,0
La Unión,2007,0,0,0,0,0,0,0,0,0,0
La Victoria,2007,0,0,0,0,1,0,0,0,0,0
Obando,2007,0,0,0,0,0,0,0,0,0,0
Palmira,2007,0,11,18.5,0,0,0,0,0,0,0
Pradera,2007,0,5,5,0,5,0,0,0,0,0
Restrepo,2007,0,0,0,0,16,0,0,0,0,0
Riofrío,2007,0,0,0,0,2.5,0,0,0,0,0
Roldanillo,2007,120,8,9.6,0,6,0,0,0,0,0
San Pedro,2007,0,0,0,0,10,0,0,0,0,0
Sevilla,2007,0,0,0,0,20,0,0,0,0,0
Toro,2007,0,0,0,0,35,0,0,0,0,0
Trujillo,2007,4,0,0,0,18,0,0,0,0,0
Tuluá,2007,9,0,0,230,9,88,75,0,0,0
Ulloa,2007,0,0,0,0,35,0,0,0,0,0
Versalles,2007,37,0,0,0,5,0,0,0,0,0
Vijes,2007,3,0,0,0,5,0,10,0,0,0
Yotoco,2007,0,0,0,0,12,0,0,0,0,0
Yumbo,2007,0.8,3,2,0,4.73,0,0,0,0,0
Zarzal,2007,0,0,0,0,2,0,0,0,0,0
Municipios,año,Arracacha,Cebolla Bulbo a,Cebolla Bulbo b,Papa b,Papachina,Remolacha a,Remolacha b,Yuca,Zanahoria a,Zanahoria b
Cali,2006,0,6,5,0,10,10,8,0,0,0
Alcalá,2006,0,0,0,0,80,0,0,0,0,0
Andalucia,2006,0,0,0,0,7,0,0,0,0,0
Ansermanuevo,2006,0,0,2,0,11.5,0,1,0,2,0
Argelia,2006,0,0,0,0,58,0,0,0,0,0
Bolivar,2006,60,0,0,0,38,0,0,0,0,0
Buenaventura,2006,0,0,0,0,20,0,0,0,0,250
Buga,2006,35,5,11,55,16,11,6,0,2,0
Bugalagrande,2006,0,0,0,0,20,0,0,0,0,0
Caicedonia,2006,0,0,0,0,36,0,0,0,0,0
Candelaria,2006,0,0,0,0,0,0,0,0,0,0
Cartago,2006,0,0,0,0,0,0,0,0,0,0
Dagua,2006,29,0,0,0,142,0,0,0,0,0
Darién,2006,0,0,0,0,17.5,0,0,0,0,0
El Aguila,2006,0,0,0,0,42,0,0,0,0,0
El Cairo,2006,0,0,0,0,4.2,0,0,0,0,0
El Cerrito,2006,0,20,17,0,0,0,0,0,0,0
El Dovio,2006,80,0,0,0,2,0,0,0,0,0
Florida,2006,0,0,0,0,44,0,0,0,0,0
Ginebra,2006,4,0,0,0,7,0,0,0,0,0
Guacarí,2006,5,9,15,0,35,0,0,0,0,0
Jamundí,2006,0,0,0,0,12,0,0,0,0,0
La Cumbre,2006,0,0,0,0,7,0,0,0,0,0
La Unión,2006,0,0,0,0,8,0,0,0,0,0
La Victoria,2006,0,0,0,0,0,0,0,0,0,0
Obando,2006,0,0,0,0,0,0,0,0,0,0
Palmira,2006,0,7.1,21,0,0,4,0,0,0,0
Pradera,2006,0,5,6,0,5,0,0,0,0,0
Restrepo,2006,0,0,0,0,14,0,0,0,0,0
Riofrío,2006,0,0,0,0,1.8,0,0,0,0,0
Roldanillo,2006,110,9.6,8,0,6,0,0,0,0,0
San Pedro,2006,0,0,0,0,7,0,0,0,0,0
Sevilla,2006,0,0,0,0,25,0,0,0,0,0
Toro,2006,0,0,0,0,35,0,0,0,0,0
Trujillo,2006,5,0,0,0,40,0,0,0,0,0
Tuluá,2006,17,0.45,0,190,10,7,60,0.55,0,0
Ulloa,2006,0,0,0,0,35,0,0,0,0,0
Versalles,2006,37,0,0,0,8,0,0,0,0,0
Vijes,2006,0,0,0,0,5,0,10,0,0,0
Yotoco,2006,0,0,0,0,15,0,0,0,0,0
Yumbo,2006,2,0.64,6,0,6,0,0,0,0,0
Zarzal,2006,0,0,0,0,5,0,0,0,0,0
Municipios,año,Arracacha,Cebolla Bulbo a,Cebolla Bulbo b,Papa b,Papachina,Remolacha a,Remolacha b,Yuca,Zanahoria a,Zanahoria b
Cali,2005,0,7,5,0,10,8,8,0,0,0
Alcalá,2005,0,0,0,0,85,0,0,0,0,0
Andalucia,2005,0,0,0,0,6,0,0,0,0,0
Ansermanuevo,2005,0,0,0,0,9.5,0,0,0,0,0
Argelia,2005,0,0,0,0,55.4,0,0,0,0,0
Bolivar,2005,58,0,0,0,45,0,0,0,0,0
Buenaventura,2005,0,0,0,0,20,0,0,0,0,310.5
Buga,2005,40,8,9,70,17,11,7,2,2,0
Bugalagrande,2005,0,0,0,0,20,0,0,0,0,0
Caicedonia,2005,0,0,0,0,18,0,0,0,0,0
Candelaria,2005,0,0,0,0,4,0,0,0,0,0
Cartago,2005,0,0,0,0,0,0,0,0,0,0
Dagua,2005,28,0,0,0,143.5,0,0,0,0,0
Darién,2005,0,0,0,0,17.5,0,0,0,0,0
El Aguila,2005,0,0,0,0,42,0.75,0,0.5,0,0
El Cairo,2005,0,0,0,0,5,0,0,0,0,0
El Cerrito,2005,0,20,20,0,0,0,0,0,0,0
El Dovio,2005,30,4,0,0,1,0,0,0,0,0
Florida,2005,0,0,0,0,44,0,0,0,0,0
Ginebra,2005,4,0,0,0,7,0,0,0,0,0
Guacarí,2005,6,4,7,0,25,0,0,0,0,0
Jamundí,2005,0,0,0,0,20,0,0,0,0,0
La Cumbre,2005,0,0,0,0,5.25,0,0,0,0,0
La Unión,2005,0,0,0,0,10,0,0,0,0,0
La Victoria,2005,0,0,0,0,2,0,0,0,0,0
Obando,2005,0,0,0,0,0,0,0,0,0,0
Palmira,2005,0,7,22.36,0,4,0,0,0,0,0
Pradera,2005,0,5,6,0,3,0,0,0,0,0
Restrepo,2005,0,0,0,0,16,0,0,0,0,0
Riofrío,2005,0,0,0,0,15,0,0,0,0,0
Roldanillo,2005,110,8,5,2,10,0,0,0,0,0
San Pedro,2005,0,0,0,0,8,0,0,0,0,0
Sevilla,2005,0,0,0,0,30,0,0,0,0,0
Toro,2005,0,0,0,0,30,0,0,0,0,0
Trujillo,2005,10,0,0,0,26,0,0,0,0,0
Tuluá,2005,10,0,0,150,15,0,0,0,0,0
Ulloa,2005,0,0,0,0,35,0,0,0,0,0
Versalles,2005,40,0,0,0,10,0,0,0,0,0
Vijes,2005,0,0,0,0,5,0,0,0,0,0
Yotoco,2005,0,0,0,0,32,0,0,0,0,0
Yumbo,2005,1.5,6.83,8,0,6,0,0,0,0,0
Zarzal,2005,0,0,0,0,3,0,0,0,0,0
Municipios,año,Arracacha,Cebolla Bulbo a,Cebolla Bulbo b,Papa b,Papachina,Remolacha a,Remolacha b,Yuca,Zanahoria a,Zanahoria b
Cali,2004,5,0,0,0,9,0,0,0,0,0
Alcalá,2004,0,0,0,0,81.56,0,0,0,0,0
Andalucia,2004,0,0,0,0,6,0,0,0,0,0
Ansermanuevo,2004,0,0,0,0,5,0,0,0,0,0
Argelia,2004,0.81,0,0,0,10.23,0,0,0,0,0
Bolivar,2004,52,0,0,0,40,0,0,0,0,0
Buenaventura,2004,0,0,0,0,20,0,0,0,0,325.6
Buga,2004,39,7,11.5,77.5,23,10.5,25.5,1,2,0
Bugalagrande,2004,0,0,0,0,27,0,0,0,0,0
Caicedonia,2004,0,0,0,0,27,0,0,0,0,0
Candelaria,2004,0,0,0,0,4,0,0,0,0,0
Cartago,2004,0,0,0,0,0,0,0,0,0,0
Dagua,2004,12.1,0,0,0,11.5,0,0,0,0,0
Darién,2004,0,0,0,0,22,0,0,0,0,0
El Aguila,2004,0,0,0,0,42,0,1,0,0.5,0
El Cairo,2004,0,0,0,0,2,0,0,0,0,0
El Cerrito,2004,0,40,40,0,0,0,0,0,0,0
El Dovio,2004,20,6,4,0,1,0,0,0,0,0
Florida,2004,0,0,0,4.5,44,0,0,0,0,0
Ginebra,2004,4.9,0,0,0,6.2,0,0,0,0,0
Guacarí,2004,5,1,3,0,20,0,0,0,0,0
Jamundí,2004,0,0,0,0,20,0,0,0,0,0
La Cumbre,2004,0,0,0,0,5.25,0,0,0,0,0
La Unión,2004,0,0,0,0,12.45,0,0,0,0,0
La Victoria,2004,0,0,0,0,2,0,0,0,0,0
Obando,2004,0,0,0,0,0,0,0,0,0,0
Palmira,2004,1,7,22.36,0,4.7,4,0,0,0,0
Pradera,2004,0,6,0,0,2.6,0,0,0,0,0
Restrepo,2004,0,0,0,0,10,0,0,0,0,0
Riofrío,2004,0,0,0,0,8,0,0,0,0,0
Roldanillo,2004,109.8,1,2.5,3,10,0,0,0,0,0
San Pedro,2004,0,0,0,0,8,0,0,0,0,0
Sevilla,2004,0,0,0,0,30,0,0,0,0,0
Toro,2004,0,0,0,0,28.3,0,0,0,0,0
Trujillo,2004,15,0,0,0,81,0,0,0,0,0
Tuluá,2004,9.8,0,0,270,4,0,20,0,0,0
Ulloa,2004,0,0,0,0,30,0,0,0,0,0
Versalles,2004,40,0,0,0,10,0,0,0,0,0
Vijes,2004,0,1.5,0,0,0,0,0,0,0,0
Yotoco,2004,5.5,0,0,0,28,0,0,0,0,0
Yumbo,2004,1,10.4,1.9,0,4.7,0,0,0,0,0
Zarzal,2004,0,0,0,0,3,0,0,0,0,0
Municipios,año,Arracacha,Cebolla Bulbo a,Cebolla Bulbo b,Papa b,Papachina,Remolacha a,Remolacha b,Yuca,Zanahoria a,Zanahoria b
Cali,2003,0,0,0,0,0,0,0,7,0,0
Alcalá,2003,0,0,0,0,0,0,0,66,0,0
Andalucia,2003,0,0,0,0,0,0,0,0,0,0
Ansermanuevo,2003,0,0,0,0,0,0,0,5.3,0,0
Argelia,2003,0,0,0,0,0,0,0,7.6,0,0
Bolivar,2003,60.8,0,0,0,0,0,0,39.6,0,0
Buenaventura,2003,0,0,0,0,320.5,0,0,17.6,0,0
Buga,2003,35.3,8.6,9.5,68,0,2,2,19.4,17,22.1
Bugalagrande,2003,0,0,0,0,0,0,0,26.4,0,0
Caicedonia,2003,0,0,0,0,0,0,0,39.5,0,0
Candelaria,2003,0,0,0,0,0,0,0,0,0,0
Cartago,2003,0,0,0,0,0,0,0,3.5,0,0
Dagua,2003,5.5,0,0,0,0,0,0,34.3,0,0
Darién,2003,0,0,0,0,0,0,0,13.2,0,0
El Aguila,2003,1.8,0,0,0,0,0,0,12.3,0,0
El Cairo,2003,0,0,0,0,0,0,0,1.7,0,0
El Cerrito,2003,0,30.2,39.4,36.3,0,0,0,0,0,0
El Dovio,2003,19.5,3,3.6,0,0,0,0,0,0,0
Florida,2003,0,0,0,4.5,0,0,0,44,0,0
Ginebra,2003,4.9,0,0,0,0,0,0,6.2,0,0
Guacarí,2003,3.6,6.5,2.4,0,0,0,0,17.6,0,0
Jamundí,2003,0,0,0,0,0,0,0,105.6,0,0
La Cumbre,2003,1.9,0,2.4,0,0,0,0,9,0,0
La Unión,2003,4.3,0,0,0,0,0,0,8.4,0,0
La Victoria,2003,0,0,0,0,0,0,0,1.8,0,0
Obando,2003,0,0,0,0,0,0,0,0,0,0
Palmira,2003,0.6,7.6,7.2,0,0,0,0,12.3,4,5.2
Pradera,2003,0,6.5,4.8,0,0,0,0,2.6,0,0
Restrepo,2003,0,0,0,0,0,0,0,13.2,0,0
Riofrío,2003,0,0,0,0,0,0,0,7,0,0
Roldanillo,2003,60.8,4.9,4.8,0,0,0,0,30.8,0,0
San Pedro,2003,0,0,0,0,0,0,0,5.3,0,0
Sevilla,2003,0,0,0,0,0,0,0,0,0,0
Toro,2003,3.6,0,0,0,0,0,0,4.4,0,0
Trujillo,2003,36.5,0,0,0,0,0,0,13.2,0,0
Tuluá,2003,10.9,0,0,210,0,0,0,17.6,5,6.5
Ulloa,2003,0,0,0,0,0,0,0,30.8,0,0
Versalles,2003,76.6,0,0,0,0,0,0,10.6,0,0
Vijes,2003,0,1.8,2.4,0,0,0,0,8.8,0,0
Yotoco,2003,6.1,0,0,0,0,0,0,24.6,0,0
Yumbo,2003,2.2,8.6,11.9,0,0,0,0,5.3,0,0
Zarzal,2003,0,0,0,0,0,0,0,4.4,0,0
Municipios,año,Arracacha,Cebolla Bulbo a,Cebolla Bulbo b,Papa b,Papachina,Remolacha a,Remolacha b,Yuca,Zanahoria a,Zanahoria b
Cali,2002,0,0,0,0,0,0,0,8,0,0
Alcalá,2002,0,0,0,0,0,0,0,75,0,0
Andalucia,2002,0,0,0,0,0,0,0,0,0,0
Ansermanuevo,2002,0,0,0,0,0,0,0,6,0,0
Argelia,2002,0,0,0,0,0,0,0,8.6,0,0
Bolivar,2002,50,0,0,0,0,0,0,40,0,0
Buenaventura,2002,0,0,0,0,320.5,0,0,20,0,0
Buga,2002,29,8,8,75,0,2,2,22,17,17
Bugalagrande,2002,0,0,0,0,0,0,0,30,0,0
Caicedonia,2002,0,0,0,0,0,0,0,45,0,0
Candelaria,2002,0,0,0,0,0,0,0,0,0,0
Cartago,2002,0,0,0,0,0,0,0,4,0,0
Dagua,2002,4.5,0,0,0,0,0,0,39,0,0
Darién,2002,0,0,0,0,0,0,0,15,0,0
El Aguila,2002,1.5,0,0,0,0,0,0,14,0,0
El Cairo,2002,0,0,0,0,0,0,0,1.9,0,0
El Cerrito,2002,0,28,33,40,0,0,0,0,0,0
El Dovio,2002,16,3,3,0,0,0,0,0,0,0
Florida,2002,0,0,0,5,0,0,0,50,0,0
Ginebra,2002,4,0,0,0,0,0,0,7,0,0
Guacarí,2002,3,6,2,0,0,0,0,20,0,0
Jamundí,2002,0,0,0,0,0,0,0,120,0,0
La Cumbre,2002,1.54,0,2,0,0,0,0,10.24,0,0
La Unión,2002,3.5,0,0,0,0,0,0,9.6,0,0
La Victoria,2002,0,0,0,0,0,0,0,2,0,0
Obando,2002,0,0,0,0,0,0,0,0,0,0
Palmira,2002,0.5,7,6,0,0,0,0,14,4,4
Pradera,2002,0,6,4,0,0,0,0,3,0,0
Restrepo,2002,0,0,0,0,0,0,0,15,0,0
Riofrío,2002,0,0,0,0,0,0,0,8,0,0
Roldanillo,2002,50,4.5,4,0,0,0,0,35,0,0
San Pedro,2002,0,0,0,0,0,0,0,6,0,0
Sevilla,2002,0,0,0,0,0,0,0,0,0,0
Toro,2002,3,0,0,0,0,0,0,5,0,0
Trujillo,2002,30,0,0,0,0,0,0,15,0,0
Tuluá,2002,9,0,0,200,0,0,0,20,5,5
Ulloa,2002,0,0,0,0,0,0,0,15,0,0
Versalles,2002,63,0,0,0,0,0,0,12,0,0
Vijes,2002,0,1.64,2,0,0,0,0,10,0,0
Yotoco,2002,5,0,0,0,0,0,0,28,0,0
Yumbo,2002,1.8,8,10,0,0,0,0,6,0,0
Zarzal,2002,0,0,0,0,0,0,0,5,0,0
Municipios,año,Arracacha,Cebolla Bulbo a,Cebolla Bulbo b,Papa b,Papachina,Remolacha a,Remolacha b,Yuca,Zanahoria a,Zanahoria b
Cali,2001,0,0,0,0,0,0,0,8,0,0
Alcalá,2001,0,0,0,0,0,0,0,230,0,0
Andalucia,2001,0,0,0,0,0,0,0,3,0,0
Ansermanuevo,2001,0,0,0,0,0,0,0,4,0,0
Argelia,2001,0,0,0,0,0,0,0,2,0,0
Bolivar,2001,30,0,0,0,0,0,0,26,0,0
Buenaventura,2001,0,0,0,0,310.5,0,0,20,0,0
Buga,2001,29,7,7,88,0,1,1,18,15,10
Bugalagrande,2001,0,0,0,0,0,0,0,20,0,0
Caicedonia,2001,0,0,0,0,0,0,0,55,0,0
Candelaria,2001,0,0,0,0,0,0,0,0,0,0
Cartago,2001,0,0,0,0,0,0,0,2,0,0
Dagua,2001,4.5,0,0,0,0,0,0,68,0,0
Darién,2001,0,0,0,0,0,0,0,18,0,0
El Aguila,2001,2,0,0,0,0,0,0,12,0,0
El Cairo,2001,0,0,0,0,0,0,0,3.6,0,0
El Cerrito,2001,0,21,18,48,0,0,0,0,0,0
El Dovio,2001,20,6,6,0,0,0,0,2,0,0
Florida,2001,8,0,3,7,0,0,0,40,0,0
Ginebra,2001,4,0,0,0,0,0,0,5,0,0
Guacarí,2001,3,5,2,0,0,0,0,20,0,0
Jamundí,2001,0,0,0,0,0,0,0,120,0,0
La Cumbre,2001,0,0,0,0,0,0,0,6,0,0
La Unión,2001,10,0,0,0,0,0,0,14.18,0,0
La Victoria,2001,0,0,0,0,0,0,0,2,0,0
Obando,2001,0,0,0,0,0,0,0,0,0,0
Palmira,2001,6,7,9,20,0,0,0,14,4,4
Pradera,2001,0,5,4,0,0,0,0,3,0,0
Restrepo,2001,0,0,0,0,0,0,0,15,0,0
Riofrío,2001,0,0,0,0,0,0,0,4,0,0
Roldanillo,2001,16.5,4,3,0,0,0,0,29,0,0
San Pedro,2001,0,0,0,0,0,0,0,8,0,0
Sevilla,2001,5,0,0,0,0,0,0,0,0,0
Toro,2001,3,0,0,0,0,0,0,6,0,0
Trujillo,2001,35,0,0,0,0,0,0,12,0,0
Tuluá,2001,8.5,0,0,190,0,0,0,20,7,6
Ulloa,2001,0,0,0,0,0,0,0,5,0,0
Versalles,2001,40,0,0,0,0,0,0,0,0,0
Vijes,2001,0,1.64,0,0,0,0,0,10,0,0
Yotoco,2001,0,3,0,0,0,0,0,17,0,0
Yumbo,2001,1.73,7.12,10.12,0,0,0,0,6,0,0
Zarzal,2001,0,0,0,0,0,0,0,3.5,0,0
Municipios,año,Arracacha,Cebolla Bulbo a,Cebolla Bulbo b,Papa b,Papachina,Remolacha a,Remolacha b,Yuca,Zanahoria a,Zanahoria b
Cali,2000,,,,,,,,9,,
Alcalá,2000,,,,,,,,260,,
Andalucia,2000,0,,,,,,,3,,
Ansermanuevo,2000,,,,,,,,4,,
Argelia,2000,,,,,,,,2,,
Bolivar,2000,25,,,,,,,10,,
Buenaventura,2000,,,,,310.5,,,41.5,,
Buga,2000,25,5,5.5,84,,1,1,13,17,19
Bugalagrande,2000,,,,,,,,30,,
Caicedonia,2000,2,,,,,,,98,,
Candelaria,2000,,,,,,,,,,
Cartago,2000,,,,,,,,3.25,,
Dagua,2000,5,,,,,,,76,,
Darién,2000,,,,,,,,16,,
El Aguila,2000,,,,,,,,23,,
El Cairo,2000,0.45,,,,,,,3.6,,
El Cerrito,2000,,14,17,40,,,,,,
El Dovio,2000,20,3,4,,,,,2,,
Florida,2000,12,,,30,,,,30,,
Ginebra,2000,4,,,,,,,12,,
Guacarí,2000,,5,3,,,,,30,,
Jamundí,2000,,,,,,,,54,,
La Cumbre,2000,1,,,1,,,,20,,
La Unión,2000,3.5,,,,,,,5.5,,
La Victoria,2000,,,,,,,,,,
Obando,2000,,,,,,,,,,
Palmira,2000,4.5,3,16,6,,,,10,1,2
Pradera,2000,,5,6,,,,,3,,
Restrepo,2000,0,,,,,,,10,,
Riofrío,2000,,,,,,,,4,,
Roldanillo,2000,47.47,5.1,5.5,,,,,32.41,,
San Pedro,2000,,,,,,,,12,,
Sevilla,2000,5,,,,,,,10.5,,
Toro,2000,5,,,,,,,10,,
Trujillo,2000,30,,1,,,,1,5.2,,1
Tuluá,2000,8,,,250,,,,12,,
Ulloa,2000,,,,,,,,15,,
Versalles,2000,11,,,,,,,,,
Vijes,2000,,0.8,1,,,,,,,
Yotoco,2000,2,,,,,,,23,,
Yumbo,2000,16.16,2.1,4.66,0.81,,,,15.3,,
Zarzal,2000,,,,,,,,5.5,,
